Rapport
…
$ sex               <fct> female, male, female, male, female, female, female, …
$ region            <fct> east, west, south, north, east, west, east, north, e…
$ bmi               <dbl> 24.8, 29.5, 18.3, 25.5, 27.3, 23.3, 23.9, 24.8, 28.6…
$ children          <dbl> 0, 1, 2, 5, 2, 4, 3, 2, 0, 2, 2, 2, 1, 1, 1, 1, 0, 3…
$ smoker            <fct> no, no, no, yes, no, no, no, no, no, yes, no, no, no…
$ chronic_condition <fct> no, no, no, no, no, no, no, no, yes, no, no, yes, no…
$ exercise_level    <chr> "high", "medium", "high", "medium", "medium", "high"…
$ plan_type         <fct> basic, basic, standard, basic, basic, standard, basi…
$ prior_accidents   <dbl> 0, 0, 0, 0, 0, 0, 0, 0, 0, 1, 0, 1, 0, 0, 0, 0, 0, 0…
$ prior_claims      <dbl> 0, 1, 0, 0, 1, 0, 0, 0, 1, 0, 0, 1, 0, 1, 3, 0, 0, 0…
$ annual_checkups   <dbl> 1, 4, 3, 2, 0, 2, 1, 2, 3, 2, 3, 3, 4, 4, 2, 1, 2, 1…
$ charges           <dbl> 6439.10, 8274.06, 5190.99, 14500.35, 6534.40, 8026.3…
$ risk_score        <dbl> 0, 1, 0, 0, 1, 0, 0, 0, 1, 1, 0, 2, 0, 1, 3, 0, 0, 0…
$ high_risk         <fct> no, no, no, no, no, no, no, no, no, no, no, yes, no,…
# A tibble: 1,100 × 16
   customer_id   age sex    region   bmi children smoker chronic_condition
   <chr>       <dbl> <fct>  <fct>  <dbl>    <dbl> <fct>  <fct>            
 1 C100000        48 female east    24.8        0 no     no               
 2 C100001        40 male   west    29.5        1 no     no               
 3 C100002        50 female south   18.3        2 no     no               
 4 C100003        62 male   north   25.5        5 yes    no               
 5 C100004        39 female east    27.3        2 no     no               
 6 C100005        39 female west    23.3        4 no     no               
 7 C100006        63 female east    23.9        3 no     no               
 8 C100007        52 male   north   24.8        2 no     no               
 9 C100008        36 female east    28.6        0 no     yes              
10 C100009        49 male   west    26.9        2 yes    no               
# ℹ 1,090 more rows
# ℹ 8 more variables: exercise_level <chr>, plan_type <fct>,
#   prior_accidents <dbl>, prior_claims <dbl>, annual_checkups <dbl>,
#   charges <dbl>, risk_score <dbl>, high_risk <fct>
…
